>>>>>>>>>>>>>>>>>>>>>>>>>>>>>>>>>>>>>>>>>>>>>>>>>>>>>>>>>>>>>>>>>>>>>>>>>>>>>>
>>>> Toolkit for HEP Event Generation - ThePEG f0c7c9e4efc0 (default) <<<<<<<<
>>>> Fri Nov 15 16:28:51 2019                                             <<<<
<<<<<<<<<<<<<<<<<<<<<<<<<<<<<<<<<<<<<<<<<<<<<<<<<<<<<<<<<<<<<<<<<<<<<<<<<<<<<<

>> Herwig b7689adb1ad6 (default) / ThePEG f0c7c9e4efc0 (default)

==============================================================================
Statistics for event handler 'EventHandler':
                                       generated    number of    Cross-section
                                          events     attempts             (nb)
==============================================================================
Total (from attempted events): including vetoed events            73.3(2)e+00
==============================================================================
Total (from generated events):            30000        30002      73.3(2)e+00
Events carry unit weights.
==============================================================================
Per matrix element breakdown:
MEbbarg2Y1bbar                               120          120      0.29(3)e+00
MEcbarg2Y1cbar                               206          206      0.50(3)e+00
MEsbarg2Y1sbar                               289          289      0.71(4)e+00
MEubarg2Y1ubar                               429          429      1.05(5)e+00
MEdbarg2Y1dbar                               465          465      1.14(5)e+00
MEdubar2Y1W-                                   2            2         5(3)e-03
MEddbar2Y1g                                  757          757      1.85(7)e+00
MEddbar2Y1gamma                                4            4       9.8(5)e-03
MEddbar2Y1Z0                                   2            2         5(3)e-03
MEddbar2Y1Y1                                   4            4       9.8(5)e-03
MEdg2Y1d                                    1108         1108      2.71(8)e+00
MEuubar2Y1g                                 1148         1148      2.80(8)e+00
MEuubar2Y1gamma                               13           13        32(9)e-03
MEuubar2Y1Z0                                   2            2         5(3)e-03
MEuubar2Y1Y1                                   7            7        17(6)e-03
MEudbar2Y1W+                                  11           11        27(8)e-03
MEug2Y1u                                    1864         1865       4.6(1)e+00
MEscbar2Y1W-                                   1            1         2(2)e-03
MEssbar2Y1g                                  183          183      0.45(3)e+00
MEssbar2Y1gamma                                0            0                0
MEssbar2Y1Z0                                   0            0                0
MEssbar2Y1Y1                                   2            2         5(3)e-03
MEsg2Y1s                                     320          320      0.78(4)e+00
MEccbar2Y1g                                   94           94      0.23(2)e+00
MEccbar2Y1gamma                                2            2         5(3)e-03
MEccbar2Y1Z0                                   0            0                0
MEccbar2Y1Y1                                   0            0                0
MEcsbar2Y1W+                                   2            2         5(3)e-03
MEcg2Y1c                                     190          190      0.46(3)e+00
MEbbbar2Y1g                                   39           39        95(2)e-03
MEbbbar2Y1gamma                                1            1         2(2)e-03
MEbbbar2Y1Z0                                   0            0                0
MEbbbar2Y1H                                    0            0                0
MEbbbar2Y1Y1                                   0            0                0
MEbg2Y1b                                     157          157      0.38(3)e+00
MEbbbar2Y12XmXm                                0            0                0
MEbbbar2Y12ttbar                               0            0                0
MEbbbar2Y12bbbar                              85           85      0.21(2)e+00
MEbbbar2Y12ssbar                             118          118      0.29(3)e+00
MEbbbar2Y12ccbar                             124          125      0.30(3)e+00
MEbbbar2Y12ddbar                             101          101      0.25(2)e+00
MEbbbar2Y12uubar                             123          123      0.30(3)e+00
MEssbar2Y12XmXm                                0            0                0
MEssbar2Y12ttbar                               0            0                0
MEssbar2Y12bbbar                             497          497      1.21(5)e+00
MEssbar2Y12ssbar                             432          432      1.06(5)e+00
MEssbar2Y12ccbar                             449          449      1.10(5)e+00
MEssbar2Y12ddbar                             465          465      1.14(5)e+00
MEssbar2Y12uubar                             458          458      1.12(5)e+00
MEccbar2Y12XmXm                                0            0                0
MEccbar2Y12ttbar                               0            0                0
MEccbar2Y12bbbar                             246          246      0.60(4)e+00
MEccbar2Y12ssbar                             291          291      0.71(4)e+00
MEccbar2Y12ccbar                             273          273      0.67(4)e+00
MEccbar2Y12ddbar                             267          267      0.65(4)e+00
MEccbar2Y12uubar                             264          264      0.64(4)e+00
MEddbar2Y12XmXm                                0            0                0
MEddbar2Y12ttbar                               0            0                0
MEddbar2Y12bbbar                            1514         1514      3.70(9)e+00
MEddbar2Y12ssbar                            1508         1508      3.68(9)e+00
MEddbar2Y12ccbar                            1566         1566      3.82(9)e+00
MEddbar2Y12ddbar                            1483         1483      3.62(9)e+00
MEddbar2Y12uubar                            1514         1514      3.70(9)e+00
MEuubar2Y12XmXm                                0            0                0
MEuubar2Y12ttbar                               0            0                0
MEuubar2Y12bbbar                            2152         2152       5.3(1)e+00
MEuubar2Y12ssbar                            2204         2204       5.4(1)e+00
MEuubar2Y12ccbar                            2229         2229       5.4(1)e+00
MEuubar2Y12ddbar                            2150         2150       5.3(1)e+00
MEuubar2Y12uubar                            2065         2065       5.0(1)e+00
==============================================================================
Per parton extractor breakdown:
PPExtractor                                30000        30002      73.3(2)e+00
==============================================================================
Per incoming partons breakdown:
d dbar                                      4112         4112      10.0(1)e+00
d ubar                                         1            1         2(2)e-03
d g                                          556          556      1.36(6)e+00
dbar d                                      4240         4240      10.4(1)e+00
dbar u                                         4            4       9.8(5)e-03
dbar g                                       249          249      0.61(4)e+00
ubar d                                         1            1         2(2)e-03
ubar u                                      5977         5977      14.6(2)e+00
ubar g                                       215          215      0.53(4)e+00
u dbar                                         7            7        17(6)e-03
u ubar                                      5993         5993      14.6(2)e+00
u g                                          950          951      2.32(7)e+00
c cbar                                       713          713      1.74(6)e+00
c sbar                                         2            2         5(3)e-03
c g                                           96           96      0.23(2)e+00
cbar c                                       724          724      1.77(7)e+00
cbar s                                         1            1         2(2)e-03
cbar g                                       109          109      0.27(3)e+00
sbar c                                         0            0                0
sbar s                                      1298         1298      3.17(9)e+00
sbar g                                       131          131      0.32(3)e+00
s cbar                                         0            0                0
s sbar                                      1188         1188      2.90(8)e+00
s g                                          164          164      0.40(3)e+00
b bbar                                       294          294      0.72(4)e+00
b g                                           79           79      0.19(2)e+00
bbar b                                       297          298      0.73(4)e+00
bbar g                                        60           60      0.15(2)e+00
g d                                          552          552      1.35(6)e+00
g dbar                                       216          216      0.53(4)e+00
g ubar                                       214          214      0.52(4)e+00
g u                                          914          914      2.23(7)e+00
g c                                           94           94      0.23(2)e+00
g cbar                                        97           97      0.24(2)e+00
g sbar                                       158          158      0.39(3)e+00
g s                                          156          156      0.38(3)e+00
g b                                           78           78      0.19(2)e+00
g bbar                                        60           60      0.15(2)e+00
==============================================================================
Detailed breakdown:
(PPExtractor) bbar b (MEbbbar2Y1g b,bbar->Y1,g) 
                                              16           16       40(10)e-03
(PPExtractor) bbar b (MEbbbar2Y1gamma b,bbar->Y1,gamma) 
                                               0            0                0
(PPExtractor) bbar b (MEbbbar2Y1Z0 b,bbar->Y1,Z0) 
                                               0            0                0
(PPExtractor) bbar b (MEbbbar2Y1H b,bbar->Y1,H) 
                                               0            0                0
(PPExtractor) bbar b (MEbbbar2Y1Y1 b,bbar->Y1,Y1) 
                                               0            0                0
(PPExtractor) bbar b (MEbbbar2Y12XmXm b,bbar->Xm,Xm) 
                                               0            0                0
(PPExtractor) bbar b (MEbbbar2Y12ttbar b,bbar->t,tbar) 
                                               0            0                0
(PPExtractor) bbar b (MEbbbar2Y12bbbar b,bbar->b,bbar) 
                                              40           40        98(2)e-03
(PPExtractor) bbar b (MEbbbar2Y12ssbar b,bbar->s,sbar) 
                                              63           63      0.15(2)e+00
(PPExtractor) bbar b (MEbbbar2Y12ccbar b,bbar->c,cbar) 
                                              60           61      0.15(2)e+00
(PPExtractor) bbar b (MEbbbar2Y12ddbar b,bbar->d,dbar) 
                                              54           54      0.13(2)e+00
(PPExtractor) bbar b (MEbbbar2Y12uubar b,bbar->u,ubar) 
                                              64           64      0.16(2)e+00
(PPExtractor) bbar g (MEbbarg2Y1bbar bbar,g->Y1,bbar) 
                                              60           60      0.15(2)e+00
(PPExtractor) cbar s (MEscbar2Y1W- s,cbar->Y1,W-) 
                                               1            1         2(2)e-03
(PPExtractor) cbar c (MEccbar2Y1g c,cbar->Y1,g) 
                                              43           43      0.11(2)e+00
(PPExtractor) cbar c (MEccbar2Y1gamma c,cbar->Y1,gamma) 
                                               1            1         2(2)e-03
(PPExtractor) cbar c (MEccbar2Y1Z0 c,cbar->Y1,Z0) 
                                               0            0                0
(PPExtractor) cbar c (MEccbar2Y1Y1 c,cbar->Y1,Y1) 
                                               0            0                0
(PPExtractor) cbar c (MEccbar2Y12XmXm c,cbar->Xm,Xm) 
                                               0            0                0
(PPExtractor) cbar c (MEccbar2Y12ttbar c,cbar->t,tbar) 
                                               0            0                0
(PPExtractor) cbar c (MEccbar2Y12bbbar c,cbar->b,bbar) 
                                             115          115      0.28(3)e+00
(PPExtractor) cbar c (MEccbar2Y12ssbar c,cbar->s,sbar) 
                                             146          146      0.36(3)e+00
(PPExtractor) cbar c (MEccbar2Y12ccbar c,cbar->c,cbar) 
                                             136          136      0.33(3)e+00
(PPExtractor) cbar c (MEccbar2Y12ddbar c,cbar->d,dbar) 
                                             143          143      0.35(3)e+00
(PPExtractor) cbar c (MEccbar2Y12uubar c,cbar->u,ubar) 
                                             140          140      0.34(3)e+00
(PPExtractor) cbar g (MEcbarg2Y1cbar cbar,g->Y1,cbar) 
                                             109          109      0.27(3)e+00
(PPExtractor) sbar s (MEssbar2Y1g s,sbar->Y1,g) 
                                             100          100      0.24(2)e+00
(PPExtractor) sbar s (MEssbar2Y1gamma s,sbar->Y1,gamma) 
                                               0            0                0
(PPExtractor) sbar s (MEssbar2Y1Z0 s,sbar->Y1,Z0) 
                                               0            0                0
(PPExtractor) sbar s (MEssbar2Y1Y1 s,sbar->Y1,Y1) 
                                               2            2         5(3)e-03
(PPExtractor) sbar s (MEssbar2Y12XmXm s,sbar->Xm,Xm) 
                                               0            0                0
(PPExtractor) sbar s (MEssbar2Y12ttbar s,sbar->t,tbar) 
                                               0            0                0
(PPExtractor) sbar s (MEssbar2Y12bbbar s,sbar->b,bbar) 
                                             244          244      0.60(4)e+00
(PPExtractor) sbar s (MEssbar2Y12ssbar s,sbar->s,sbar) 
                                             238          238      0.58(4)e+00
(PPExtractor) sbar s (MEssbar2Y12ccbar s,sbar->c,cbar) 
                                             237          237      0.58(4)e+00
(PPExtractor) sbar s (MEssbar2Y12ddbar s,sbar->d,dbar) 
                                             245          245      0.60(4)e+00
(PPExtractor) sbar s (MEssbar2Y12uubar s,sbar->u,ubar) 
                                             232          232      0.57(4)e+00
(PPExtractor) sbar c (MEcsbar2Y1W+ c,sbar->Y1,W+) 
                                               0            0                0
(PPExtractor) sbar g (MEsbarg2Y1sbar sbar,g->Y1,sbar) 
                                             131          131      0.32(3)e+00
(PPExtractor) ubar d (MEdubar2Y1W- d,ubar->Y1,W-) 
                                               1            1         2(2)e-03
(PPExtractor) ubar u (MEuubar2Y1g u,ubar->Y1,g) 
                                             607          607      1.48(6)e+00
(PPExtractor) ubar u (MEuubar2Y1gamma u,ubar->Y1,gamma) 
                                               4            4       9.8(5)e-03
(PPExtractor) ubar u (MEuubar2Y1Z0 u,ubar->Y1,Z0) 
                                               1            1         2(2)e-03
(PPExtractor) ubar u (MEuubar2Y1Y1 u,ubar->Y1,Y1) 
                                               5            5        12(5)e-03
(PPExtractor) ubar u (MEuubar2Y12XmXm u,ubar->Xm,Xm) 
                                               0            0                0
(PPExtractor) ubar u (MEuubar2Y12ttbar u,ubar->t,tbar) 
                                               0            0                0
(PPExtractor) ubar u (MEuubar2Y12bbbar u,ubar->b,bbar) 
                                            1070         1070      2.61(8)e+00
(PPExtractor) ubar u (MEuubar2Y12ssbar u,ubar->s,sbar) 
                                            1107         1107      2.70(8)e+00
(PPExtractor) ubar u (MEuubar2Y12ccbar u,ubar->c,cbar) 
                                            1119         1119      2.73(8)e+00
(PPExtractor) ubar u (MEuubar2Y12ddbar u,ubar->d,dbar) 
                                            1036         1036      2.53(8)e+00
(PPExtractor) ubar u (MEuubar2Y12uubar u,ubar->u,ubar) 
                                            1028         1028      2.51(8)e+00
(PPExtractor) ubar g (MEubarg2Y1ubar ubar,g->Y1,ubar) 
                                             215          215      0.53(4)e+00
(PPExtractor) dbar d (MEddbar2Y1g d,dbar->Y1,g) 
                                             387          387      0.95(5)e+00
(PPExtractor) dbar d (MEddbar2Y1gamma d,dbar->Y1,gamma) 
                                               2            2         5(3)e-03
(PPExtractor) dbar d (MEddbar2Y1Z0 d,dbar->Y1,Z0) 
                                               0            0                0
(PPExtractor) dbar d (MEddbar2Y1Y1 d,dbar->Y1,Y1) 
                                               3            3         7(4)e-03
(PPExtractor) dbar d (MEddbar2Y12XmXm d,dbar->Xm,Xm) 
                                               0            0                0
(PPExtractor) dbar d (MEddbar2Y12ttbar d,dbar->t,tbar) 
                                               0            0                0
(PPExtractor) dbar d (MEddbar2Y12bbbar d,dbar->b,bbar) 
                                             781          781      1.91(7)e+00
(PPExtractor) dbar d (MEddbar2Y12ssbar d,dbar->s,sbar) 
                                             747          747      1.82(7)e+00
(PPExtractor) dbar d (MEddbar2Y12ccbar d,dbar->c,cbar) 
                                             807          807      1.97(7)e+00
(PPExtractor) dbar d (MEddbar2Y12ddbar d,dbar->d,dbar) 
                                             742          742      1.81(7)e+00
(PPExtractor) dbar d (MEddbar2Y12uubar d,dbar->u,ubar) 
                                             771          771      1.88(7)e+00
(PPExtractor) dbar u (MEudbar2Y1W+ u,dbar->Y1,W+) 
                                               4            4       9.8(5)e-03
(PPExtractor) dbar g (MEdbarg2Y1dbar dbar,g->Y1,dbar) 
                                             249          249      0.61(4)e+00
(PPExtractor) d ubar (MEdubar2Y1W- d,ubar->Y1,W-) 
                                               1            1         2(2)e-03
(PPExtractor) d dbar (MEddbar2Y1g d,dbar->Y1,g) 
                                             370          370      0.90(5)e+00
(PPExtractor) d dbar (MEddbar2Y1gamma d,dbar->Y1,gamma) 
                                               2            2         5(3)e-03
(PPExtractor) d dbar (MEddbar2Y1Z0 d,dbar->Y1,Z0) 
                                               2            2         5(3)e-03
(PPExtractor) d dbar (MEddbar2Y1Y1 d,dbar->Y1,Y1) 
                                               1            1         2(2)e-03
(PPExtractor) d dbar (MEddbar2Y12XmXm d,dbar->Xm,Xm) 
                                               0            0                0
(PPExtractor) d dbar (MEddbar2Y12ttbar d,dbar->t,tbar) 
                                               0            0                0
(PPExtractor) d dbar (MEddbar2Y12bbbar d,dbar->b,bbar) 
                                             733          733      1.79(7)e+00
(PPExtractor) d dbar (MEddbar2Y12ssbar d,dbar->s,sbar) 
                                             761          761      1.86(7)e+00
(PPExtractor) d dbar (MEddbar2Y12ccbar d,dbar->c,cbar) 
                                             759          759      1.85(7)e+00
(PPExtractor) d dbar (MEddbar2Y12ddbar d,dbar->d,dbar) 
                                             741          741      1.81(7)e+00
(PPExtractor) d dbar (MEddbar2Y12uubar d,dbar->u,ubar) 
                                             743          743      1.81(7)e+00
(PPExtractor) d g (MEdg2Y1d d,g->Y1,d) 
                                             556          556      1.36(6)e+00
(PPExtractor) u ubar (MEuubar2Y1g u,ubar->Y1,g) 
                                             541          541      1.32(6)e+00
(PPExtractor) u ubar (MEuubar2Y1gamma u,ubar->Y1,gamma) 
                                               9            9        22(7)e-03
(PPExtractor) u ubar (MEuubar2Y1Z0 u,ubar->Y1,Z0) 
                                               1            1         2(2)e-03
(PPExtractor) u ubar (MEuubar2Y1Y1 u,ubar->Y1,Y1) 
                                               2            2         5(3)e-03
(PPExtractor) u ubar (MEuubar2Y12XmXm u,ubar->Xm,Xm) 
                                               0            0                0
(PPExtractor) u ubar (MEuubar2Y12ttbar u,ubar->t,tbar) 
                                               0            0                0
(PPExtractor) u ubar (MEuubar2Y12bbbar u,ubar->b,bbar) 
                                            1082         1082      2.64(8)e+00
(PPExtractor) u ubar (MEuubar2Y12ssbar u,ubar->s,sbar) 
                                            1097         1097      2.68(8)e+00
(PPExtractor) u ubar (MEuubar2Y12ccbar u,ubar->c,cbar) 
                                            1110         1110      2.71(8)e+00
(PPExtractor) u ubar (MEuubar2Y12ddbar u,ubar->d,dbar) 
                                            1114         1114      2.72(8)e+00
(PPExtractor) u ubar (MEuubar2Y12uubar u,ubar->u,ubar) 
                                            1037         1037      2.53(8)e+00
(PPExtractor) u dbar (MEudbar2Y1W+ u,dbar->Y1,W+) 
                                               7            7        17(6)e-03
(PPExtractor) u g (MEug2Y1u u,g->Y1,u) 
                                             950          951      2.32(7)e+00
(PPExtractor) s cbar (MEscbar2Y1W- s,cbar->Y1,W-) 
                                               0            0                0
(PPExtractor) s sbar (MEssbar2Y1g s,sbar->Y1,g) 
                                              83           83      0.20(2)e+00
(PPExtractor) s sbar (MEssbar2Y1gamma s,sbar->Y1,gamma) 
                                               0            0                0
(PPExtractor) s sbar (MEssbar2Y1Z0 s,sbar->Y1,Z0) 
                                               0            0                0
(PPExtractor) s sbar (MEssbar2Y1Y1 s,sbar->Y1,Y1) 
                                               0            0                0
(PPExtractor) s sbar (MEssbar2Y12XmXm s,sbar->Xm,Xm) 
                                               0            0                0
(PPExtractor) s sbar (MEssbar2Y12ttbar s,sbar->t,tbar) 
                                               0            0                0
(PPExtractor) s sbar (MEssbar2Y12bbbar s,sbar->b,bbar) 
                                             253          253      0.62(4)e+00
(PPExtractor) s sbar (MEssbar2Y12ssbar s,sbar->s,sbar) 
                                             194          194      0.47(3)e+00
(PPExtractor) s sbar (MEssbar2Y12ccbar s,sbar->c,cbar) 
                                             212          212      0.52(4)e+00
(PPExtractor) s sbar (MEssbar2Y12ddbar s,sbar->d,dbar) 
                                             220          220      0.54(4)e+00
(PPExtractor) s sbar (MEssbar2Y12uubar s,sbar->u,ubar) 
                                             226          226      0.55(4)e+00
(PPExtractor) s g (MEsg2Y1s s,g->Y1,s) 
                                             164          164      0.40(3)e+00
(PPExtractor) c cbar (MEccbar2Y1g c,cbar->Y1,g) 
                                              51           51      0.12(2)e+00
(PPExtractor) c cbar (MEccbar2Y1gamma c,cbar->Y1,gamma) 
                                               1            1         2(2)e-03
(PPExtractor) c cbar (MEccbar2Y1Z0 c,cbar->Y1,Z0) 
                                               0            0                0
(PPExtractor) c cbar (MEccbar2Y1Y1 c,cbar->Y1,Y1) 
                                               0            0                0
(PPExtractor) c cbar (MEccbar2Y12XmXm c,cbar->Xm,Xm) 
                                               0            0                0
(PPExtractor) c cbar (MEccbar2Y12ttbar c,cbar->t,tbar) 
                                               0            0                0
(PPExtractor) c cbar (MEccbar2Y12bbbar c,cbar->b,bbar) 
                                             131          131      0.32(3)e+00
(PPExtractor) c cbar (MEccbar2Y12ssbar c,cbar->s,sbar) 
                                             145          145      0.35(3)e+00
(PPExtractor) c cbar (MEccbar2Y12ccbar c,cbar->c,cbar) 
                                             137          137      0.33(3)e+00
(PPExtractor) c cbar (MEccbar2Y12ddbar c,cbar->d,dbar) 
                                             124          124      0.30(3)e+00
(PPExtractor) c cbar (MEccbar2Y12uubar c,cbar->u,ubar) 
                                             124          124      0.30(3)e+00
(PPExtractor) c sbar (MEcsbar2Y1W+ c,sbar->Y1,W+) 
                                               2            2         5(3)e-03
(PPExtractor) c g (MEcg2Y1c c,g->Y1,c) 
                                              96           96      0.23(2)e+00
(PPExtractor) b bbar (MEbbbar2Y1g b,bbar->Y1,g) 
                                              23           23       60(10)e-03
(PPExtractor) b bbar (MEbbbar2Y1gamma b,bbar->Y1,gamma) 
                                               1            1         2(2)e-03
(PPExtractor) b bbar (MEbbbar2Y1Z0 b,bbar->Y1,Z0) 
                                               0            0                0
(PPExtractor) b bbar (MEbbbar2Y1H b,bbar->Y1,H) 
                                               0            0                0
(PPExtractor) b bbar (MEbbbar2Y1Y1 b,bbar->Y1,Y1) 
                                               0            0                0
(PPExtractor) b bbar (MEbbbar2Y12XmXm b,bbar->Xm,Xm) 
                                               0            0                0
(PPExtractor) b bbar (MEbbbar2Y12ttbar b,bbar->t,tbar) 
                                               0            0                0
(PPExtractor) b bbar (MEbbbar2Y12bbbar b,bbar->b,bbar) 
                                              45           45      0.11(2)e+00
(PPExtractor) b bbar (MEbbbar2Y12ssbar b,bbar->s,sbar) 
                                              55           55      0.13(2)e+00
(PPExtractor) b bbar (MEbbbar2Y12ccbar b,bbar->c,cbar) 
                                              64           64      0.16(2)e+00
(PPExtractor) b bbar (MEbbbar2Y12ddbar b,bbar->d,dbar) 
                                              47           47      0.11(2)e+00
(PPExtractor) b bbar (MEbbbar2Y12uubar b,bbar->u,ubar) 
                                              59           59      0.14(2)e+00
(PPExtractor) b g (MEbg2Y1b b,g->Y1,b) 
                                              79           79      0.19(2)e+00
(PPExtractor) g bbar (MEbbarg2Y1bbar bbar,g->Y1,bbar) 
                                              60           60      0.15(2)e+00
(PPExtractor) g cbar (MEcbarg2Y1cbar cbar,g->Y1,cbar) 
                                              97           97      0.24(2)e+00
(PPExtractor) g sbar (MEsbarg2Y1sbar sbar,g->Y1,sbar) 
                                             158          158      0.39(3)e+00
(PPExtractor) g ubar (MEubarg2Y1ubar ubar,g->Y1,ubar) 
                                             214          214      0.52(4)e+00
(PPExtractor) g dbar (MEdbarg2Y1dbar dbar,g->Y1,dbar) 
                                             216          216      0.53(4)e+00
(PPExtractor) g d (MEdg2Y1d d,g->Y1,d) 
                                             552          552      1.35(6)e+00
(PPExtractor) g u (MEug2Y1u u,g->Y1,u) 
                                             914          914      2.23(7)e+00
(PPExtractor) g s (MEsg2Y1s s,g->Y1,s) 
                                             156          156      0.38(3)e+00
(PPExtractor) g c (MEcg2Y1c c,g->Y1,c) 
                                              94           94      0.23(2)e+00
(PPExtractor) g b (MEbg2Y1b b,g->Y1,b) 
                                              78           78      0.19(2)e+00
==============================================================================
