#labels: Et_gam_ATLAS_lower[1] Et_gam_ATLAS_center[2] Et_gam_ATLAS_upper[3] tot_scale01[4] tot_scale01_Err[5] tot_scale02[6] tot_scale02_Err[7] tot_scale03[8] tot_scale03_Err[9] tot_scale04[10] tot_scale04_Err[11] tot_scale05[12] tot_scale05_Err[13] tot_scale06[14] tot_scale06_Err[15] tot_scale07[16] tot_scale07_Err[17]
#neval: 1500000000
#overflow:lower center upper 7.73293726302E-03 1.53897247205E-05 8.36505633365E-03 1.81995038469E-05 8.16964369712E-03 1.69163472333E-05 8.74028382748E-03 2.01048411966E-05 7.15277408588E-03 1.33719947631E-05 7.33894672897E-03 1.41436590054E-05 6.73838842575E-03 1.23157722718E-05 
1.25000000000E+02 1.37500000000E+02 1.50000000000E+02 5.84486572887E+03 1.09763408981E+00 5.81957380795E+03 1.09697690891E+00 6.36142385309E+03 1.33722115112E+00 6.35424416014E+03 1.33664688873E+00 5.87041729886E+03 1.09276276446E+00 5.40593688626E+03 9.21033869251E-01 5.43662841881E+03 9.17191625593E-01 
1.50000000000E+02 1.62500000000E+02 1.75000000000E+02 2.96091220141E+03 6.16079963518E-01 2.96767288729E+03 6.24583289665E-01 3.24382476168E+03 7.45025172093E-01 3.25715016074E+03 7.55535005688E-01 2.95693454521E+03 6.05874434573E-01 2.72446370069E+03 5.20304303013E-01 2.72212895938E+03 5.11890357214E-01 
1.75000000000E+02 1.87500000000E+02 2.00000000000E+02 1.57576349322E+03 3.84540042388E-01 1.58835253802E+03 3.93324816965E-01 1.72733334834E+03 4.61857921511E-01 1.74278883490E+03 4.72601695540E-01 1.56621184892E+03 3.75302918824E-01 1.44929132103E+03 3.26771164664E-01 1.44040449064E+03 3.19083987845E-01 
2.00000000000E+02 2.25000000000E+02 2.50000000000E+02 6.95003050814E+02 1.32485221295E-01 7.04817589917E+02 1.36800285835E-01 7.59302435611E+02 1.56851310761E-01 7.70070155710E+02 1.62078956773E-01 6.87419033903E+02 1.28357392968E-01 6.40990352273E+02 1.14187329241E-01 6.33558880046E+02 1.10718589967E-01 
2.50000000000E+02 2.75000000000E+02 3.00000000000E+02 2.56457285652E+02 6.65759852104E-02 2.61785383068E+02 6.95743333413E-02 2.78727190649E+02 7.76131303478E-02 2.84222180424E+02 8.12079461304E-02 2.52292365441E+02 6.38768085969E-02 2.37548589938E+02 5.82158920828E-02 2.33351181081E+02 5.59196409295E-02 
3.00000000000E+02 3.25000000000E+02 3.50000000000E+02 1.09065842121E+02 3.74499887198E-02 1.11845418408E+02 3.94984198540E-02 1.18038100431E+02 4.30940562005E-02 1.20808039339E+02 4.55279613725E-02 1.06867065589E+02 3.56679162052E-02 1.01378745173E+02 3.31401641610E-02 9.91277292531E+01 3.16068240988E-02 
3.50000000000E+02 3.75000000000E+02 4.00000000000E+02 5.12389479815E+01 2.26826000837E-02 5.27257701702E+01 2.40991918593E-02 5.52600877367E+01 2.58243923177E-02 5.67059793987E+01 2.74941992597E-02 5.00499888602E+01 2.14786845946E-02 4.77667616420E+01 2.02648459797E-02 4.65360123429E+01 1.92182785534E-02 
4.00000000000E+02 4.35000000000E+02 4.70000000000E+02 2.32399384543E+01 1.11122704279E-02 2.39852966368E+01 1.18823225825E-02 2.49842612168E+01 1.24662654470E-02 2.56935479426E+01 1.33645973055E-02 2.26370643788E+01 1.04759917501E-02 2.17229429856E+01 1.00582005859E-02 2.10929582342E+01 9.49698461773E-03 
4.70000000000E+02 5.10000000000E+02 5.50000000000E+02 9.53043446947E+00 6.00940434380E-03 9.86494812348E+00 6.47240819713E-03 1.02120303419E+01 6.65612957475E-03 1.05235433875E+01 7.19111573865E-03 9.25674371800E+00 5.63721240772E-03 8.93304940349E+00 5.49855186598E-03 8.64443999390E+00 5.16578341936E-03 
5.50000000000E+02 6.00000000000E+02 6.50000000000E+02 3.70796117499E+00 2.85523003286E-03 3.84819481572E+00 3.10241281394E-03 3.96136646259E+00 3.13588730332E-03 4.08942998202E+00 3.41917880560E-03 3.59186984006E+00 2.66072686759E-03 3.48430480178E+00 2.63067760861E-03 3.36095056447E+00 2.45506215996E-03 
6.50000000000E+02 7.00000000000E+02 7.50000000000E+02 1.43553344138E+00 1.67157003642E-03 1.49335419626E+00 1.83356779621E-03 1.52965519581E+00 1.82456591325E-03 1.58155994722E+00 2.00778716540E-03 1.38707328447E+00 1.54376970906E-03 1.35192894500E+00 1.54689775415E-03 1.30013138258E+00 1.43034618105E-03 
7.50000000000E+02 8.25000000000E+02 9.00000000000E+02 5.17878525272E-01 7.20609313063E-04 5.39938860064E-01 7.90058153722E-04 5.50569629642E-01 7.80209364738E-04 5.70079580442E-01 8.58973143905E-04 4.99134977965E-01 6.67716671910E-04 4.88680531389E-01 6.71622001497E-04 4.68555544808E-01 6.23108736442E-04 
9.00000000000E+02 1.00000000000E+03 1.10000000000E+03 1.44244309957E-01 1.92180635753E-04 1.50823992335E-01 2.12222641486E-04 1.53018381192E-01 2.07865524881E-04 1.58764732012E-01 2.30672406490E-04 1.38549879993E-01 1.77246383576E-04 1.36367851568E-01 1.79305307675E-04 1.30241473647E-01 1.65617200588E-04 
1.10000000000E+03 1.30000000000E+03 1.50000000000E+03 2.45524407130E-02 2.94267312925E-05 2.57791103645E-02 3.28632712964E-05 2.59970875807E-02 3.19215676460E-05 2.70591594666E-02 3.58346902174E-05 2.34671271545E-02 2.68894658132E-05 2.32504190580E-02 2.73860840496E-05 2.20843909543E-02 2.50671489105E-05 
1.50000000000E+03 1.75000000000E+03 2.00000000000E+03 2.06180537129E-03 2.83556237405E-06 2.18120542674E-03 3.22590201950E-06 2.18029329379E-03 3.08927298937E-06 2.28389625337E-03 3.53313592631E-06 1.95358866659E-03 2.55090749732E-06 1.95484148861E-03 2.62842333394E-06 1.83954206186E-03 2.36895019527E-06 
2.00000000000E+03 2.25000000000E+03 2.50000000000E+03 1.56018455111E-04 2.91413061878E-07 1.66811850350E-04 3.39370447046E-07 1.64963353181E-04 3.21911248115E-07 1.74503542580E-04 3.76596770440E-07 1.46114011883E-04 2.56242937391E-07 1.47956523238E-04 2.66698526049E-07 1.37560844806E-04 2.35017941133E-07 
#nx: 3
