>>>>>>>>>>>>>>>>>>>>>>>>>>>>>>>>>>>>>>>>>>>>>>>>>>>>>>>>>>>>>>>>>>>>>>>>>>>>>>
>>>> Toolkit for HEP Event Generation - ThePEG f0c7c9e4efc0 (default) <<<<<<<<
>>>> Fri Nov 15 16:28:51 2019                                             <<<<
<<<<<<<<<<<<<<<<<<<<<<<<<<<<<<<<<<<<<<<<<<<<<<<<<<<<<<<<<<<<<<<<<<<<<<<<<<<<<<

>> Herwig b7689adb1ad6 (default) / ThePEG f0c7c9e4efc0 (default)

==============================================================================
Statistics for event handler 'EventHandler':
                                       generated    number of    Cross-section
                                          events     attempts             (nb)
==============================================================================
Total (from attempted events): including vetoed events            73.5(2)e+00
==============================================================================
Total (from generated events):            30000        30004      73.5(2)e+00
Events carry unit weights.
==============================================================================
Per matrix element breakdown:
MEbbarg2Y1bbar                               141          141      0.35(3)e+00
MEcbarg2Y1cbar                               231          231      0.57(4)e+00
MEsbarg2Y1sbar                               297          297      0.73(4)e+00
MEubarg2Y1ubar                               459          459      1.12(5)e+00
MEdbarg2Y1dbar                               546          546      1.34(6)e+00
MEdubar2Y1W-                                  14           14        34(9)e-03
MEddbar2Y1g                                  797          797      1.95(7)e+00
MEddbar2Y1gamma                                1            1         2(2)e-03
MEddbar2Y1Z0                                   6            6        15(6)e-03
MEddbar2Y1Y1                                   0            0                0
MEdg2Y1d                                    1108         1108      2.71(8)e+00
MEuubar2Y1g                                 1093         1093      2.68(8)e+00
MEuubar2Y1gamma                               19           19       50(10)e-03
MEuubar2Y1Z0                                   2            2         5(3)e-03
MEuubar2Y1Y1                                   4            4       9.8(5)e-03
MEudbar2Y1W+                                   9            9        22(7)e-03
MEug2Y1u                                    1910         1910       4.7(1)e+00
MEscbar2Y1W-                                   1            1         2(2)e-03
MEssbar2Y1g                                  190          190      0.47(3)e+00
MEssbar2Y1gamma                                1            1         2(2)e-03
MEssbar2Y1Z0                                   0            0                0
MEssbar2Y1Y1                                   1            1         2(2)e-03
MEsg2Y1s                                     293          293      0.72(4)e+00
MEccbar2Y1g                                   83           84      0.20(2)e+00
MEccbar2Y1gamma                                2            2         5(3)e-03
MEccbar2Y1Z0                                   0            0                0
MEccbar2Y1Y1                                   1            1         2(2)e-03
MEcsbar2Y1W+                                   2            2         5(3)e-03
MEcg2Y1c                                     211          211      0.52(4)e+00
MEbbbar2Y1g                                   45           45      0.11(2)e+00
MEbbbar2Y1gamma                                0            0                0
MEbbbar2Y1Z0                                   0            0                0
MEbbbar2Y1H                                    0            0                0
MEbbbar2Y1Y1                                   0            0                0
MEbg2Y1b                                     127          127      0.31(3)e+00
MEbbbar2Y12XmXm                                0            0                0
MEbbbar2Y12ttbar                               0            0                0
MEbbbar2Y12bbbar                             110          110      0.27(3)e+00
MEbbbar2Y12ssbar                             126          126      0.31(3)e+00
MEbbbar2Y12ccbar                             118          118      0.29(3)e+00
MEbbbar2Y12ddbar                             103          103      0.25(2)e+00
MEbbbar2Y12uubar                              99           99      0.24(2)e+00
MEssbar2Y12XmXm                                2            2         5(3)e-03
MEssbar2Y12ttbar                               0            0                0
MEssbar2Y12bbbar                             465          465      1.14(5)e+00
MEssbar2Y12ssbar                             441          441      1.08(5)e+00
MEssbar2Y12ccbar                             439          439      1.08(5)e+00
MEssbar2Y12ddbar                             460          460      1.13(5)e+00
MEssbar2Y12uubar                             478          478      1.17(5)e+00
MEccbar2Y12XmXm                                0            0                0
MEccbar2Y12ttbar                               0            0                0
MEccbar2Y12bbbar                             272          272      0.67(4)e+00
MEccbar2Y12ssbar                             252          252      0.62(4)e+00
MEccbar2Y12ccbar                             269          269      0.66(4)e+00
MEccbar2Y12ddbar                             245          245      0.60(4)e+00
MEccbar2Y12uubar                             229          230      0.56(4)e+00
MEddbar2Y12XmXm                                4            4       9.8(5)e-03
MEddbar2Y12ttbar                               0            0                0
MEddbar2Y12bbbar                            1510         1510      3.70(9)e+00
MEddbar2Y12ssbar                            1464         1464      3.59(9)e+00
MEddbar2Y12ccbar                            1521         1521      3.73(9)e+00
MEddbar2Y12ddbar                            1506         1506      3.69(9)e+00
MEddbar2Y12uubar                            1520         1520      3.72(9)e+00
MEuubar2Y12XmXm                                5            5        12(5)e-03
MEuubar2Y12ttbar                               1            1         2(2)e-03
MEuubar2Y12bbbar                            2251         2252       5.5(1)e+00
MEuubar2Y12ssbar                            2152         2152       5.3(1)e+00
MEuubar2Y12ccbar                            2124         2124       5.2(1)e+00
MEuubar2Y12ddbar                            2060         2060       5.0(1)e+00
MEuubar2Y12uubar                            2180         2181       5.3(1)e+00
==============================================================================
Per parton extractor breakdown:
PPExtractor                                30000        30004      73.5(2)e+00
==============================================================================
Per incoming partons breakdown:
d dbar                                      4144         4144      10.2(1)e+00
d ubar                                        10           10        24(8)e-03
d g                                          548          548      1.34(6)e+00
dbar d                                      4185         4185      10.3(1)e+00
dbar u                                         4            4       9.8(5)e-03
dbar g                                       272          272      0.67(4)e+00
ubar d                                         4            4       9.8(5)e-03
ubar u                                      5893         5894      14.4(2)e+00
ubar g                                       234          234      0.57(4)e+00
u dbar                                         5            5        12(5)e-03
u ubar                                      5998         5999      14.7(2)e+00
u g                                          952          952      2.33(7)e+00
c cbar                                       668          669      1.64(6)e+00
c sbar                                         1            1         2(2)e-03
c g                                          110          110      0.27(3)e+00
cbar c                                       685          686      1.68(6)e+00
cbar s                                         0            0                0
cbar g                                       107          107      0.26(3)e+00
sbar c                                         1            1         2(2)e-03
sbar s                                      1254         1254      3.07(9)e+00
sbar g                                       145          145      0.36(3)e+00
s cbar                                         1            1         2(2)e-03
s sbar                                      1223         1223      3.00(8)e+00
s g                                          150          150      0.37(3)e+00
b bbar                                       296          296      0.73(4)e+00
b g                                           66           66      0.16(2)e+00
bbar b                                       305          305      0.75(4)e+00
bbar g                                        73           73      0.18(2)e+00
g d                                          560          560      1.37(6)e+00
g dbar                                       274          274      0.67(4)e+00
g ubar                                       225          225      0.55(4)e+00
g u                                          958          958      2.35(7)e+00
g c                                          101          101      0.25(2)e+00
g cbar                                       124          124      0.30(3)e+00
g sbar                                       152          152      0.37(3)e+00
g s                                          143          143      0.35(3)e+00
g b                                           61           61      0.15(2)e+00
g bbar                                        68           68      0.17(2)e+00
==============================================================================
Detailed breakdown:
(PPExtractor) bbar b (MEbbbar2Y1g b,bbar->Y1,g) 
                                              25           25       60(10)e-03
(PPExtractor) bbar b (MEbbbar2Y1gamma b,bbar->Y1,gamma) 
                                               0            0                0
(PPExtractor) bbar b (MEbbbar2Y1Z0 b,bbar->Y1,Z0) 
                                               0            0                0
(PPExtractor) bbar b (MEbbbar2Y1H b,bbar->Y1,H) 
                                               0            0                0
(PPExtractor) bbar b (MEbbbar2Y1Y1 b,bbar->Y1,Y1) 
                                               0            0                0
(PPExtractor) bbar b (MEbbbar2Y12XmXm b,bbar->Xm,Xm) 
                                               0            0                0
(PPExtractor) bbar b (MEbbbar2Y12ttbar b,bbar->t,tbar) 
                                               0            0                0
(PPExtractor) bbar b (MEbbbar2Y12bbbar b,bbar->b,bbar) 
                                              49           49      0.12(2)e+00
(PPExtractor) bbar b (MEbbbar2Y12ssbar b,bbar->s,sbar) 
                                              72           72      0.18(2)e+00
(PPExtractor) bbar b (MEbbbar2Y12ccbar b,bbar->c,cbar) 
                                              63           63      0.15(2)e+00
(PPExtractor) bbar b (MEbbbar2Y12ddbar b,bbar->d,dbar) 
                                              52           52      0.13(2)e+00
(PPExtractor) bbar b (MEbbbar2Y12uubar b,bbar->u,ubar) 
                                              44           44      0.11(2)e+00
(PPExtractor) bbar g (MEbbarg2Y1bbar bbar,g->Y1,bbar) 
                                              73           73      0.18(2)e+00
(PPExtractor) cbar s (MEscbar2Y1W- s,cbar->Y1,W-) 
                                               0            0                0
(PPExtractor) cbar c (MEccbar2Y1g c,cbar->Y1,g) 
                                              40           41        98(2)e-03
(PPExtractor) cbar c (MEccbar2Y1gamma c,cbar->Y1,gamma) 
                                               1            1         2(2)e-03
(PPExtractor) cbar c (MEccbar2Y1Z0 c,cbar->Y1,Z0) 
                                               0            0                0
(PPExtractor) cbar c (MEccbar2Y1Y1 c,cbar->Y1,Y1) 
                                               0            0                0
(PPExtractor) cbar c (MEccbar2Y12XmXm c,cbar->Xm,Xm) 
                                               0            0                0
(PPExtractor) cbar c (MEccbar2Y12ttbar c,cbar->t,tbar) 
                                               0            0                0
(PPExtractor) cbar c (MEccbar2Y12bbbar c,cbar->b,bbar) 
                                             145          145      0.36(3)e+00
(PPExtractor) cbar c (MEccbar2Y12ssbar c,cbar->s,sbar) 
                                             127          127      0.31(3)e+00
(PPExtractor) cbar c (MEccbar2Y12ccbar c,cbar->c,cbar) 
                                             138          138      0.34(3)e+00
(PPExtractor) cbar c (MEccbar2Y12ddbar c,cbar->d,dbar) 
                                             126          126      0.31(3)e+00
(PPExtractor) cbar c (MEccbar2Y12uubar c,cbar->u,ubar) 
                                             108          108      0.26(3)e+00
(PPExtractor) cbar g (MEcbarg2Y1cbar cbar,g->Y1,cbar) 
                                             107          107      0.26(3)e+00
(PPExtractor) sbar s (MEssbar2Y1g s,sbar->Y1,g) 
                                              97           97      0.24(2)e+00
(PPExtractor) sbar s (MEssbar2Y1gamma s,sbar->Y1,gamma) 
                                               0            0                0
(PPExtractor) sbar s (MEssbar2Y1Z0 s,sbar->Y1,Z0) 
                                               0            0                0
(PPExtractor) sbar s (MEssbar2Y1Y1 s,sbar->Y1,Y1) 
                                               1            1         2(2)e-03
(PPExtractor) sbar s (MEssbar2Y12XmXm s,sbar->Xm,Xm) 
                                               0            0                0
(PPExtractor) sbar s (MEssbar2Y12ttbar s,sbar->t,tbar) 
                                               0            0                0
(PPExtractor) sbar s (MEssbar2Y12bbbar s,sbar->b,bbar) 
                                             239          239      0.59(4)e+00
(PPExtractor) sbar s (MEssbar2Y12ssbar s,sbar->s,sbar) 
                                             218          218      0.53(4)e+00
(PPExtractor) sbar s (MEssbar2Y12ccbar s,sbar->c,cbar) 
                                             220          220      0.54(4)e+00
(PPExtractor) sbar s (MEssbar2Y12ddbar s,sbar->d,dbar) 
                                             226          226      0.55(4)e+00
(PPExtractor) sbar s (MEssbar2Y12uubar s,sbar->u,ubar) 
                                             253          253      0.62(4)e+00
(PPExtractor) sbar c (MEcsbar2Y1W+ c,sbar->Y1,W+) 
                                               1            1         2(2)e-03
(PPExtractor) sbar g (MEsbarg2Y1sbar sbar,g->Y1,sbar) 
                                             145          145      0.36(3)e+00
(PPExtractor) ubar d (MEdubar2Y1W- d,ubar->Y1,W-) 
                                               4            4       9.8(5)e-03
(PPExtractor) ubar u (MEuubar2Y1g u,ubar->Y1,g) 
                                             535          535      1.31(6)e+00
(PPExtractor) ubar u (MEuubar2Y1gamma u,ubar->Y1,gamma) 
                                               8            8        20(7)e-03
(PPExtractor) ubar u (MEuubar2Y1Z0 u,ubar->Y1,Z0) 
                                               1            1         2(2)e-03
(PPExtractor) ubar u (MEuubar2Y1Y1 u,ubar->Y1,Y1) 
                                               2            2         5(3)e-03
(PPExtractor) ubar u (MEuubar2Y12XmXm u,ubar->Xm,Xm) 
                                               4            4       9.8(5)e-03
(PPExtractor) ubar u (MEuubar2Y12ttbar u,ubar->t,tbar) 
                                               0            0                0
(PPExtractor) ubar u (MEuubar2Y12bbbar u,ubar->b,bbar) 
                                            1131         1131      2.77(8)e+00
(PPExtractor) ubar u (MEuubar2Y12ssbar u,ubar->s,sbar) 
                                            1055         1055      2.58(8)e+00
(PPExtractor) ubar u (MEuubar2Y12ccbar u,ubar->c,cbar) 
                                            1048         1048      2.57(8)e+00
(PPExtractor) ubar u (MEuubar2Y12ddbar u,ubar->d,dbar) 
                                            1008         1008      2.47(8)e+00
(PPExtractor) ubar u (MEuubar2Y12uubar u,ubar->u,ubar) 
                                            1101         1102      2.70(8)e+00
(PPExtractor) ubar g (MEubarg2Y1ubar ubar,g->Y1,ubar) 
                                             234          234      0.57(4)e+00
(PPExtractor) dbar d (MEddbar2Y1g d,dbar->Y1,g) 
                                             393          393      0.96(5)e+00
(PPExtractor) dbar d (MEddbar2Y1gamma d,dbar->Y1,gamma) 
                                               0            0                0
(PPExtractor) dbar d (MEddbar2Y1Z0 d,dbar->Y1,Z0) 
                                               4            4       9.8(5)e-03
(PPExtractor) dbar d (MEddbar2Y1Y1 d,dbar->Y1,Y1) 
                                               0            0                0
(PPExtractor) dbar d (MEddbar2Y12XmXm d,dbar->Xm,Xm) 
                                               2            2         5(3)e-03
(PPExtractor) dbar d (MEddbar2Y12ttbar d,dbar->t,tbar) 
                                               0            0                0
(PPExtractor) dbar d (MEddbar2Y12bbbar d,dbar->b,bbar) 
                                             770          770      1.89(7)e+00
(PPExtractor) dbar d (MEddbar2Y12ssbar d,dbar->s,sbar) 
                                             705          705      1.73(6)e+00
(PPExtractor) dbar d (MEddbar2Y12ccbar d,dbar->c,cbar) 
                                             745          745      1.83(7)e+00
(PPExtractor) dbar d (MEddbar2Y12ddbar d,dbar->d,dbar) 
                                             771          771      1.89(7)e+00
(PPExtractor) dbar d (MEddbar2Y12uubar d,dbar->u,ubar) 
                                             795          795      1.95(7)e+00
(PPExtractor) dbar u (MEudbar2Y1W+ u,dbar->Y1,W+) 
                                               4            4       9.8(5)e-03
(PPExtractor) dbar g (MEdbarg2Y1dbar dbar,g->Y1,dbar) 
                                             272          272      0.67(4)e+00
(PPExtractor) d ubar (MEdubar2Y1W- d,ubar->Y1,W-) 
                                              10           10        24(8)e-03
(PPExtractor) d dbar (MEddbar2Y1g d,dbar->Y1,g) 
                                             404          404      0.99(5)e+00
(PPExtractor) d dbar (MEddbar2Y1gamma d,dbar->Y1,gamma) 
                                               1            1         2(2)e-03
(PPExtractor) d dbar (MEddbar2Y1Z0 d,dbar->Y1,Z0) 
                                               2            2         5(3)e-03
(PPExtractor) d dbar (MEddbar2Y1Y1 d,dbar->Y1,Y1) 
                                               0            0                0
(PPExtractor) d dbar (MEddbar2Y12XmXm d,dbar->Xm,Xm) 
                                               2            2         5(3)e-03
(PPExtractor) d dbar (MEddbar2Y12ttbar d,dbar->t,tbar) 
                                               0            0                0
(PPExtractor) d dbar (MEddbar2Y12bbbar d,dbar->b,bbar) 
                                             740          740      1.81(7)e+00
(PPExtractor) d dbar (MEddbar2Y12ssbar d,dbar->s,sbar) 
                                             759          759      1.86(7)e+00
(PPExtractor) d dbar (MEddbar2Y12ccbar d,dbar->c,cbar) 
                                             776          776      1.90(7)e+00
(PPExtractor) d dbar (MEddbar2Y12ddbar d,dbar->d,dbar) 
                                             735          735      1.80(7)e+00
(PPExtractor) d dbar (MEddbar2Y12uubar d,dbar->u,ubar) 
                                             725          725      1.78(7)e+00
(PPExtractor) d g (MEdg2Y1d d,g->Y1,d) 
                                             548          548      1.34(6)e+00
(PPExtractor) u ubar (MEuubar2Y1g u,ubar->Y1,g) 
                                             558          558      1.37(6)e+00
(PPExtractor) u ubar (MEuubar2Y1gamma u,ubar->Y1,gamma) 
                                              11           11        27(8)e-03
(PPExtractor) u ubar (MEuubar2Y1Z0 u,ubar->Y1,Z0) 
                                               1            1         2(2)e-03
(PPExtractor) u ubar (MEuubar2Y1Y1 u,ubar->Y1,Y1) 
                                               2            2         5(3)e-03
(PPExtractor) u ubar (MEuubar2Y12XmXm u,ubar->Xm,Xm) 
                                               1            1         2(2)e-03
(PPExtractor) u ubar (MEuubar2Y12ttbar u,ubar->t,tbar) 
                                               1            1         2(2)e-03
(PPExtractor) u ubar (MEuubar2Y12bbbar u,ubar->b,bbar) 
                                            1120         1121      2.74(8)e+00
(PPExtractor) u ubar (MEuubar2Y12ssbar u,ubar->s,sbar) 
                                            1097         1097      2.69(8)e+00
(PPExtractor) u ubar (MEuubar2Y12ccbar u,ubar->c,cbar) 
                                            1076         1076      2.64(8)e+00
(PPExtractor) u ubar (MEuubar2Y12ddbar u,ubar->d,dbar) 
                                            1052         1052      2.58(8)e+00
(PPExtractor) u ubar (MEuubar2Y12uubar u,ubar->u,ubar) 
                                            1079         1079      2.64(8)e+00
(PPExtractor) u dbar (MEudbar2Y1W+ u,dbar->Y1,W+) 
                                               5            5        12(5)e-03
(PPExtractor) u g (MEug2Y1u u,g->Y1,u) 
                                             952          952      2.33(7)e+00
(PPExtractor) s cbar (MEscbar2Y1W- s,cbar->Y1,W-) 
                                               1            1         2(2)e-03
(PPExtractor) s sbar (MEssbar2Y1g s,sbar->Y1,g) 
                                              93           93      0.23(2)e+00
(PPExtractor) s sbar (MEssbar2Y1gamma s,sbar->Y1,gamma) 
                                               1            1         2(2)e-03
(PPExtractor) s sbar (MEssbar2Y1Z0 s,sbar->Y1,Z0) 
                                               0            0                0
(PPExtractor) s sbar (MEssbar2Y1Y1 s,sbar->Y1,Y1) 
                                               0            0                0
(PPExtractor) s sbar (MEssbar2Y12XmXm s,sbar->Xm,Xm) 
                                               2            2         5(3)e-03
(PPExtractor) s sbar (MEssbar2Y12ttbar s,sbar->t,tbar) 
                                               0            0                0
(PPExtractor) s sbar (MEssbar2Y12bbbar s,sbar->b,bbar) 
                                             226          226      0.55(4)e+00
(PPExtractor) s sbar (MEssbar2Y12ssbar s,sbar->s,sbar) 
                                             223          223      0.55(4)e+00
(PPExtractor) s sbar (MEssbar2Y12ccbar s,sbar->c,cbar) 
                                             219          219      0.54(4)e+00
(PPExtractor) s sbar (MEssbar2Y12ddbar s,sbar->d,dbar) 
                                             234          234      0.57(4)e+00
(PPExtractor) s sbar (MEssbar2Y12uubar s,sbar->u,ubar) 
                                             225          225      0.55(4)e+00
(PPExtractor) s g (MEsg2Y1s s,g->Y1,s) 
                                             150          150      0.37(3)e+00
(PPExtractor) c cbar (MEccbar2Y1g c,cbar->Y1,g) 
                                              43           43      0.11(2)e+00
(PPExtractor) c cbar (MEccbar2Y1gamma c,cbar->Y1,gamma) 
                                               1            1         2(2)e-03
(PPExtractor) c cbar (MEccbar2Y1Z0 c,cbar->Y1,Z0) 
                                               0            0                0
(PPExtractor) c cbar (MEccbar2Y1Y1 c,cbar->Y1,Y1) 
                                               1            1         2(2)e-03
(PPExtractor) c cbar (MEccbar2Y12XmXm c,cbar->Xm,Xm) 
                                               0            0                0
(PPExtractor) c cbar (MEccbar2Y12ttbar c,cbar->t,tbar) 
                                               0            0                0
(PPExtractor) c cbar (MEccbar2Y12bbbar c,cbar->b,bbar) 
                                             127          127      0.31(3)e+00
(PPExtractor) c cbar (MEccbar2Y12ssbar c,cbar->s,sbar) 
                                             125          125      0.31(3)e+00
(PPExtractor) c cbar (MEccbar2Y12ccbar c,cbar->c,cbar) 
                                             131          131      0.32(3)e+00
(PPExtractor) c cbar (MEccbar2Y12ddbar c,cbar->d,dbar) 
                                             119          119      0.29(3)e+00
(PPExtractor) c cbar (MEccbar2Y12uubar c,cbar->u,ubar) 
                                             121          122      0.30(3)e+00
(PPExtractor) c sbar (MEcsbar2Y1W+ c,sbar->Y1,W+) 
                                               1            1         2(2)e-03
(PPExtractor) c g (MEcg2Y1c c,g->Y1,c) 
                                             110          110      0.27(3)e+00
(PPExtractor) b bbar (MEbbbar2Y1g b,bbar->Y1,g) 
                                              20           20       50(10)e-03
(PPExtractor) b bbar (MEbbbar2Y1gamma b,bbar->Y1,gamma) 
                                               0            0                0
(PPExtractor) b bbar (MEbbbar2Y1Z0 b,bbar->Y1,Z0) 
                                               0            0                0
(PPExtractor) b bbar (MEbbbar2Y1H b,bbar->Y1,H) 
                                               0            0                0
(PPExtractor) b bbar (MEbbbar2Y1Y1 b,bbar->Y1,Y1) 
                                               0            0                0
(PPExtractor) b bbar (MEbbbar2Y12XmXm b,bbar->Xm,Xm) 
                                               0            0                0
(PPExtractor) b bbar (MEbbbar2Y12ttbar b,bbar->t,tbar) 
                                               0            0                0
(PPExtractor) b bbar (MEbbbar2Y12bbbar b,bbar->b,bbar) 
                                              61           61      0.15(2)e+00
(PPExtractor) b bbar (MEbbbar2Y12ssbar b,bbar->s,sbar) 
                                              54           54      0.13(2)e+00
(PPExtractor) b bbar (MEbbbar2Y12ccbar b,bbar->c,cbar) 
                                              55           55      0.13(2)e+00
(PPExtractor) b bbar (MEbbbar2Y12ddbar b,bbar->d,dbar) 
                                              51           51      0.12(2)e+00
(PPExtractor) b bbar (MEbbbar2Y12uubar b,bbar->u,ubar) 
                                              55           55      0.13(2)e+00
(PPExtractor) b g (MEbg2Y1b b,g->Y1,b) 
                                              66           66      0.16(2)e+00
(PPExtractor) g bbar (MEbbarg2Y1bbar bbar,g->Y1,bbar) 
                                              68           68      0.17(2)e+00
(PPExtractor) g cbar (MEcbarg2Y1cbar cbar,g->Y1,cbar) 
                                             124          124      0.30(3)e+00
(PPExtractor) g sbar (MEsbarg2Y1sbar sbar,g->Y1,sbar) 
                                             152          152      0.37(3)e+00
(PPExtractor) g ubar (MEubarg2Y1ubar ubar,g->Y1,ubar) 
                                             225          225      0.55(4)e+00
(PPExtractor) g dbar (MEdbarg2Y1dbar dbar,g->Y1,dbar) 
                                             274          274      0.67(4)e+00
(PPExtractor) g d (MEdg2Y1d d,g->Y1,d) 
                                             560          560      1.37(6)e+00
(PPExtractor) g u (MEug2Y1u u,g->Y1,u) 
                                             958          958      2.35(7)e+00
(PPExtractor) g s (MEsg2Y1s s,g->Y1,s) 
                                             143          143      0.35(3)e+00
(PPExtractor) g c (MEcg2Y1c c,g->Y1,c) 
                                             101          101      0.25(2)e+00
(PPExtractor) g b (MEbg2Y1b b,g->Y1,b) 
                                              61           61      0.15(2)e+00
==============================================================================
