>>>>>>>>>>>>>>>>>>>>>>>>>>>>>>>>>>>>>>>>>>>>>>>>>>>>>>>>>>>>>>>>>>>>>>>>>>>>>>
>>>> Toolkit for HEP Event Generation - ThePEG f0c7c9e4efc0 (default) <<<<<<<<
>>>> Fri Nov 15 16:28:52 2019                                             <<<<
<<<<<<<<<<<<<<<<<<<<<<<<<<<<<<<<<<<<<<<<<<<<<<<<<<<<<<<<<<<<<<<<<<<<<<<<<<<<<<

>> Herwig b7689adb1ad6 (default) / ThePEG f0c7c9e4efc0 (default)

==============================================================================
Statistics for event handler 'EventHandler':
                                       generated    number of    Cross-section
                                          events     attempts             (nb)
==============================================================================
Total (from attempted events): including vetoed events           34.74(9)e+00
==============================================================================
Total (from generated events):            30000        30002     34.74(9)e+00
Events carry unit weights.
==============================================================================
Per matrix element breakdown:
MEbbarg2Y1bbar                                89           89      0.10(1)e+00
MEcbarg2Y1cbar                               138          138      0.16(1)e+00
MEsbarg2Y1sbar                               199          199      0.23(2)e+00
MEubarg2Y1ubar                               340          340      0.39(2)e+00
MEdbarg2Y1dbar                               388          388      0.45(2)e+00
MEdubar2Y1W-                                   9            9        10(3)e-03
MEddbar2Y1g                                  759          759      0.88(3)e+00
MEddbar2Y1gamma                                3            3         3(2)e-03
MEddbar2Y1Z0                                   1            1         1(1)e-03
MEddbar2Y1Y1                                   3            3         3(2)e-03
MEdg2Y1d                                     927          927      1.07(3)e+00
MEuubar2Y1g                                 1170         1170      1.35(4)e+00
MEuubar2Y1gamma                               26           26        30(6)e-03
MEuubar2Y1Z0                                   5            5         6(3)e-03
MEuubar2Y1Y1                                   6            6         7(3)e-03
MEudbar2Y1W+                                  11           11        13(4)e-03
MEug2Y1u                                    1685         1685      1.95(5)e+00
MEscbar2Y1W-                                   2            2         2(2)e-03
MEssbar2Y1g                                  145          145      0.17(1)e+00
MEssbar2Y1gamma                                0            0                0
MEssbar2Y1Z0                                   0            0                0
MEssbar2Y1Y1                                   1            1         1(1)e-03
MEsg2Y1s                                     190          190      0.22(2)e+00
MEccbar2Y1g                                   61           61        71(9)e-03
MEccbar2Y1gamma                                2            2         2(2)e-03
MEccbar2Y1Z0                                   0            0                0
MEccbar2Y1Y1                                   0            0                0
MEcsbar2Y1W+                                   0            0                0
MEcg2Y1c                                     155          155      0.18(1)e+00
MEbbbar2Y1g                                   17           17        20(5)e-03
MEbbbar2Y1gamma                                0            0                0
MEbbbar2Y1Z0                                   0            0                0
MEbbbar2Y1H                                    0            0                0
MEbbbar2Y1Y1                                   0            0                0
MEbg2Y1b                                      99           99      0.11(1)e+00
MEbbbar2Y12XmXm                                0            0                0
MEbbbar2Y12ttbar                               0            0                0
MEbbbar2Y12bbbar                              86           86      0.10(1)e+00
MEbbbar2Y12ssbar                              72           72       80(10)e-03
MEbbbar2Y12ccbar                              82           82       90(10)e-03
MEbbbar2Y12ddbar                              67           67        78(9)e-03
MEbbbar2Y12uubar                              79           79       90(10)e-03
MEssbar2Y12XmXm                                0            0                0
MEssbar2Y12ttbar                               0            0                0
MEssbar2Y12bbbar                             383          383      0.44(2)e+00
MEssbar2Y12ssbar                             333          333      0.39(2)e+00
MEssbar2Y12ccbar                             370          370      0.43(2)e+00
MEssbar2Y12ddbar                             380          380      0.44(2)e+00
MEssbar2Y12uubar                             379          379      0.44(2)e+00
MEccbar2Y12XmXm                                0            0                0
MEccbar2Y12ttbar                               0            0                0
MEccbar2Y12bbbar                             195          195      0.23(2)e+00
MEccbar2Y12ssbar                             197          197      0.23(2)e+00
MEccbar2Y12ccbar                             195          195      0.23(2)e+00
MEccbar2Y12ddbar                             199          199      0.23(2)e+00
MEccbar2Y12uubar                             184          184      0.21(2)e+00
MEddbar2Y12XmXm                                0            0                0
MEddbar2Y12ttbar                               0            0                0
MEddbar2Y12bbbar                            1645         1645      1.90(5)e+00
MEddbar2Y12ssbar                            1592         1592      1.84(5)e+00
MEddbar2Y12ccbar                            1635         1635      1.89(5)e+00
MEddbar2Y12ddbar                            1545         1546      1.79(4)e+00
MEddbar2Y12uubar                            1623         1624      1.88(5)e+00
MEuubar2Y12XmXm                                0            0                0
MEuubar2Y12ttbar                               0            0                0
MEuubar2Y12bbbar                            2507         2507      2.90(6)e+00
MEuubar2Y12ssbar                            2427         2427      2.81(6)e+00
MEuubar2Y12ccbar                            2412         2412      2.79(6)e+00
MEuubar2Y12ddbar                            2464         2464      2.85(6)e+00
MEuubar2Y12uubar                            2518         2518      2.92(6)e+00
==============================================================================
Per parton extractor breakdown:
PPExtractor                                30000        30002     34.74(9)e+00
==============================================================================
Per incoming partons breakdown:
d dbar                                      4345         4347      5.03(7)e+00
d ubar                                         3            3         3(2)e-03
d g                                          451          451      0.52(2)e+00
dbar d                                      4461         4461      5.17(7)e+00
dbar u                                         5            5         6(3)e-03
dbar g                                       206          206      0.24(2)e+00
ubar d                                         6            6         7(3)e-03
ubar u                                      6676         6676      7.73(9)e+00
ubar g                                       153          153      0.18(1)e+00
u dbar                                         6            6         7(3)e-03
u ubar                                      6859         6859      7.94(9)e+00
u g                                          806          806      0.93(3)e+00
c cbar                                       535          535      0.62(3)e+00
c sbar                                         0            0                0
c g                                           71           71       80(10)e-03
cbar c                                       498          498      0.58(3)e+00
cbar s                                         0            0                0
cbar g                                        73           73       80(10)e-03
sbar c                                         0            0                0
sbar s                                      1020         1020      1.18(4)e+00
sbar g                                        87           87      0.10(1)e+00
s cbar                                         2            2         2(2)e-03
s sbar                                       971          971      1.12(4)e+00
s g                                          106          106      0.12(1)e+00
b bbar                                       211          211      0.24(2)e+00
b g                                           52           52        60(8)e-03
bbar b                                       192          192      0.22(2)e+00
bbar g                                        48           48        56(8)e-03
g d                                          476          476      0.55(3)e+00
g dbar                                       182          182      0.21(2)e+00
g ubar                                       187          187      0.22(2)e+00
g u                                          879          879      1.02(3)e+00
g c                                           84           84        97(1)e-03
g cbar                                        65           65        75(9)e-03
g sbar                                       112          112      0.13(1)e+00
g s                                           84           84        97(1)e-03
g b                                           47           47        54(8)e-03
g bbar                                        41           41        47(7)e-03
==============================================================================
Detailed breakdown:
(PPExtractor) bbar b (MEbbbar2Y1g b,bbar->Y1,g) 
                                               5            5         6(3)e-03
(PPExtractor) bbar b (MEbbbar2Y1gamma b,bbar->Y1,gamma) 
                                               0            0                0
(PPExtractor) bbar b (MEbbbar2Y1Z0 b,bbar->Y1,Z0) 
                                               0            0                0
(PPExtractor) bbar b (MEbbbar2Y1H b,bbar->Y1,H) 
                                               0            0                0
(PPExtractor) bbar b (MEbbbar2Y1Y1 b,bbar->Y1,Y1) 
                                               0            0                0
(PPExtractor) bbar b (MEbbbar2Y12XmXm b,bbar->Xm,Xm) 
                                               0            0                0
(PPExtractor) bbar b (MEbbbar2Y12ttbar b,bbar->t,tbar) 
                                               0            0                0
(PPExtractor) bbar b (MEbbbar2Y12bbbar b,bbar->b,bbar) 
                                              43           43        50(8)e-03
(PPExtractor) bbar b (MEbbbar2Y12ssbar b,bbar->s,sbar) 
                                              37           37        43(7)e-03
(PPExtractor) bbar b (MEbbbar2Y12ccbar b,bbar->c,cbar) 
                                              44           44        51(8)e-03
(PPExtractor) bbar b (MEbbbar2Y12ddbar b,bbar->d,dbar) 
                                              28           28        32(6)e-03
(PPExtractor) bbar b (MEbbbar2Y12uubar b,bbar->u,ubar) 
                                              35           35        41(7)e-03
(PPExtractor) bbar g (MEbbarg2Y1bbar bbar,g->Y1,bbar) 
                                              48           48        56(8)e-03
(PPExtractor) cbar s (MEscbar2Y1W- s,cbar->Y1,W-) 
                                               0            0                0
(PPExtractor) cbar c (MEccbar2Y1g c,cbar->Y1,g) 
                                              35           35        41(7)e-03
(PPExtractor) cbar c (MEccbar2Y1gamma c,cbar->Y1,gamma) 
                                               2            2         2(2)e-03
(PPExtractor) cbar c (MEccbar2Y1Z0 c,cbar->Y1,Z0) 
                                               0            0                0
(PPExtractor) cbar c (MEccbar2Y1Y1 c,cbar->Y1,Y1) 
                                               0            0                0
(PPExtractor) cbar c (MEccbar2Y12XmXm c,cbar->Xm,Xm) 
                                               0            0                0
(PPExtractor) cbar c (MEccbar2Y12ttbar c,cbar->t,tbar) 
                                               0            0                0
(PPExtractor) cbar c (MEccbar2Y12bbbar c,cbar->b,bbar) 
                                             100          100      0.12(1)e+00
(PPExtractor) cbar c (MEccbar2Y12ssbar c,cbar->s,sbar) 
                                              93           93      0.11(1)e+00
(PPExtractor) cbar c (MEccbar2Y12ccbar c,cbar->c,cbar) 
                                              96           96      0.11(1)e+00
(PPExtractor) cbar c (MEccbar2Y12ddbar c,cbar->d,dbar) 
                                              88           88      0.10(1)e+00
(PPExtractor) cbar c (MEccbar2Y12uubar c,cbar->u,ubar) 
                                              84           84        97(1)e-03
(PPExtractor) cbar g (MEcbarg2Y1cbar cbar,g->Y1,cbar) 
                                              73           73       80(10)e-03
(PPExtractor) sbar s (MEssbar2Y1g s,sbar->Y1,g) 
                                              71           71       80(10)e-03
(PPExtractor) sbar s (MEssbar2Y1gamma s,sbar->Y1,gamma) 
                                               0            0                0
(PPExtractor) sbar s (MEssbar2Y1Z0 s,sbar->Y1,Z0) 
                                               0            0                0
(PPExtractor) sbar s (MEssbar2Y1Y1 s,sbar->Y1,Y1) 
                                               0            0                0
(PPExtractor) sbar s (MEssbar2Y12XmXm s,sbar->Xm,Xm) 
                                               0            0                0
(PPExtractor) sbar s (MEssbar2Y12ttbar s,sbar->t,tbar) 
                                               0            0                0
(PPExtractor) sbar s (MEssbar2Y12bbbar s,sbar->b,bbar) 
                                             194          194      0.22(2)e+00
(PPExtractor) sbar s (MEssbar2Y12ssbar s,sbar->s,sbar) 
                                             167          167      0.19(1)e+00
(PPExtractor) sbar s (MEssbar2Y12ccbar s,sbar->c,cbar) 
                                             197          197      0.23(2)e+00
(PPExtractor) sbar s (MEssbar2Y12ddbar s,sbar->d,dbar) 
                                             203          203      0.24(2)e+00
(PPExtractor) sbar s (MEssbar2Y12uubar s,sbar->u,ubar) 
                                             188          188      0.22(2)e+00
(PPExtractor) sbar c (MEcsbar2Y1W+ c,sbar->Y1,W+) 
                                               0            0                0
(PPExtractor) sbar g (MEsbarg2Y1sbar sbar,g->Y1,sbar) 
                                              87           87      0.10(1)e+00
(PPExtractor) ubar d (MEdubar2Y1W- d,ubar->Y1,W-) 
                                               6            6         7(3)e-03
(PPExtractor) ubar u (MEuubar2Y1g u,ubar->Y1,g) 
                                             588          588      0.68(3)e+00
(PPExtractor) ubar u (MEuubar2Y1gamma u,ubar->Y1,gamma) 
                                              15           15        17(4)e-03
(PPExtractor) ubar u (MEuubar2Y1Z0 u,ubar->Y1,Z0) 
                                               2            2         2(2)e-03
(PPExtractor) ubar u (MEuubar2Y1Y1 u,ubar->Y1,Y1) 
                                               4            4         5(2)e-03
(PPExtractor) ubar u (MEuubar2Y12XmXm u,ubar->Xm,Xm) 
                                               0            0                0
(PPExtractor) ubar u (MEuubar2Y12ttbar u,ubar->t,tbar) 
                                               0            0                0
(PPExtractor) ubar u (MEuubar2Y12bbbar u,ubar->b,bbar) 
                                            1202         1202      1.39(4)e+00
(PPExtractor) ubar u (MEuubar2Y12ssbar u,ubar->s,sbar) 
                                            1190         1190      1.38(4)e+00
(PPExtractor) ubar u (MEuubar2Y12ccbar u,ubar->c,cbar) 
                                            1168         1168      1.35(4)e+00
(PPExtractor) ubar u (MEuubar2Y12ddbar u,ubar->d,dbar) 
                                            1264         1264      1.46(4)e+00
(PPExtractor) ubar u (MEuubar2Y12uubar u,ubar->u,ubar) 
                                            1243         1243      1.44(4)e+00
(PPExtractor) ubar g (MEubarg2Y1ubar ubar,g->Y1,ubar) 
                                             153          153      0.18(1)e+00
(PPExtractor) dbar d (MEddbar2Y1g d,dbar->Y1,g) 
                                             363          363      0.42(2)e+00
(PPExtractor) dbar d (MEddbar2Y1gamma d,dbar->Y1,gamma) 
                                               0            0                0
(PPExtractor) dbar d (MEddbar2Y1Z0 d,dbar->Y1,Z0) 
                                               1            1         1(1)e-03
(PPExtractor) dbar d (MEddbar2Y1Y1 d,dbar->Y1,Y1) 
                                               1            1         1(1)e-03
(PPExtractor) dbar d (MEddbar2Y12XmXm d,dbar->Xm,Xm) 
                                               0            0                0
(PPExtractor) dbar d (MEddbar2Y12ttbar d,dbar->t,tbar) 
                                               0            0                0
(PPExtractor) dbar d (MEddbar2Y12bbbar d,dbar->b,bbar) 
                                             862          862     0.998(3)e+00
(PPExtractor) dbar d (MEddbar2Y12ssbar d,dbar->s,sbar) 
                                             784          784      0.91(3)e+00
(PPExtractor) dbar d (MEddbar2Y12ccbar d,dbar->c,cbar) 
                                             816          816      0.94(3)e+00
(PPExtractor) dbar d (MEddbar2Y12ddbar d,dbar->d,dbar) 
                                             784          784      0.91(3)e+00
(PPExtractor) dbar d (MEddbar2Y12uubar d,dbar->u,ubar) 
                                             850          850      0.98(3)e+00
(PPExtractor) dbar u (MEudbar2Y1W+ u,dbar->Y1,W+) 
                                               5            5         6(3)e-03
(PPExtractor) dbar g (MEdbarg2Y1dbar dbar,g->Y1,dbar) 
                                             206          206      0.24(2)e+00
(PPExtractor) d ubar (MEdubar2Y1W- d,ubar->Y1,W-) 
                                               3            3         3(2)e-03
(PPExtractor) d dbar (MEddbar2Y1g d,dbar->Y1,g) 
                                             396          396      0.46(2)e+00
(PPExtractor) d dbar (MEddbar2Y1gamma d,dbar->Y1,gamma) 
                                               3            3         3(2)e-03
(PPExtractor) d dbar (MEddbar2Y1Z0 d,dbar->Y1,Z0) 
                                               0            0                0
(PPExtractor) d dbar (MEddbar2Y1Y1 d,dbar->Y1,Y1) 
                                               2            2         2(2)e-03
(PPExtractor) d dbar (MEddbar2Y12XmXm d,dbar->Xm,Xm) 
                                               0            0                0
(PPExtractor) d dbar (MEddbar2Y12ttbar d,dbar->t,tbar) 
                                               0            0                0
(PPExtractor) d dbar (MEddbar2Y12bbbar d,dbar->b,bbar) 
                                             783          783      0.91(3)e+00
(PPExtractor) d dbar (MEddbar2Y12ssbar d,dbar->s,sbar) 
                                             808          808      0.94(3)e+00
(PPExtractor) d dbar (MEddbar2Y12ccbar d,dbar->c,cbar) 
                                             819          819      0.95(3)e+00
(PPExtractor) d dbar (MEddbar2Y12ddbar d,dbar->d,dbar) 
                                             761          762      0.88(3)e+00
(PPExtractor) d dbar (MEddbar2Y12uubar d,dbar->u,ubar) 
                                             773          774      0.90(3)e+00
(PPExtractor) d g (MEdg2Y1d d,g->Y1,d) 
                                             451          451      0.52(2)e+00
(PPExtractor) u ubar (MEuubar2Y1g u,ubar->Y1,g) 
                                             582          582      0.67(3)e+00
(PPExtractor) u ubar (MEuubar2Y1gamma u,ubar->Y1,gamma) 
                                              11           11        13(4)e-03
(PPExtractor) u ubar (MEuubar2Y1Z0 u,ubar->Y1,Z0) 
                                               3            3         3(2)e-03
(PPExtractor) u ubar (MEuubar2Y1Y1 u,ubar->Y1,Y1) 
                                               2            2         2(2)e-03
(PPExtractor) u ubar (MEuubar2Y12XmXm u,ubar->Xm,Xm) 
                                               0            0                0
(PPExtractor) u ubar (MEuubar2Y12ttbar u,ubar->t,tbar) 
                                               0            0                0
(PPExtractor) u ubar (MEuubar2Y12bbbar u,ubar->b,bbar) 
                                            1305         1305      1.51(4)e+00
(PPExtractor) u ubar (MEuubar2Y12ssbar u,ubar->s,sbar) 
                                            1237         1237      1.43(4)e+00
(PPExtractor) u ubar (MEuubar2Y12ccbar u,ubar->c,cbar) 
                                            1244         1244      1.44(4)e+00
(PPExtractor) u ubar (MEuubar2Y12ddbar u,ubar->d,dbar) 
                                            1200         1200      1.39(4)e+00
(PPExtractor) u ubar (MEuubar2Y12uubar u,ubar->u,ubar) 
                                            1275         1275      1.48(4)e+00
(PPExtractor) u dbar (MEudbar2Y1W+ u,dbar->Y1,W+) 
                                               6            6         7(3)e-03
(PPExtractor) u g (MEug2Y1u u,g->Y1,u) 
                                             806          806      0.93(3)e+00
(PPExtractor) s cbar (MEscbar2Y1W- s,cbar->Y1,W-) 
                                               2            2         2(2)e-03
(PPExtractor) s sbar (MEssbar2Y1g s,sbar->Y1,g) 
                                              74           74       90(10)e-03
(PPExtractor) s sbar (MEssbar2Y1gamma s,sbar->Y1,gamma) 
                                               0            0                0
(PPExtractor) s sbar (MEssbar2Y1Z0 s,sbar->Y1,Z0) 
                                               0            0                0
(PPExtractor) s sbar (MEssbar2Y1Y1 s,sbar->Y1,Y1) 
                                               1            1         1(1)e-03
(PPExtractor) s sbar (MEssbar2Y12XmXm s,sbar->Xm,Xm) 
                                               0            0                0
(PPExtractor) s sbar (MEssbar2Y12ttbar s,sbar->t,tbar) 
                                               0            0                0
(PPExtractor) s sbar (MEssbar2Y12bbbar s,sbar->b,bbar) 
                                             189          189      0.22(2)e+00
(PPExtractor) s sbar (MEssbar2Y12ssbar s,sbar->s,sbar) 
                                             166          166      0.19(1)e+00
(PPExtractor) s sbar (MEssbar2Y12ccbar s,sbar->c,cbar) 
                                             173          173      0.20(2)e+00
(PPExtractor) s sbar (MEssbar2Y12ddbar s,sbar->d,dbar) 
                                             177          177      0.20(2)e+00
(PPExtractor) s sbar (MEssbar2Y12uubar s,sbar->u,ubar) 
                                             191          191      0.22(2)e+00
(PPExtractor) s g (MEsg2Y1s s,g->Y1,s) 
                                             106          106      0.12(1)e+00
(PPExtractor) c cbar (MEccbar2Y1g c,cbar->Y1,g) 
                                              26           26        30(6)e-03
(PPExtractor) c cbar (MEccbar2Y1gamma c,cbar->Y1,gamma) 
                                               0            0                0
(PPExtractor) c cbar (MEccbar2Y1Z0 c,cbar->Y1,Z0) 
                                               0            0                0
(PPExtractor) c cbar (MEccbar2Y1Y1 c,cbar->Y1,Y1) 
                                               0            0                0
(PPExtractor) c cbar (MEccbar2Y12XmXm c,cbar->Xm,Xm) 
                                               0            0                0
(PPExtractor) c cbar (MEccbar2Y12ttbar c,cbar->t,tbar) 
                                               0            0                0
(PPExtractor) c cbar (MEccbar2Y12bbbar c,cbar->b,bbar) 
                                              95           95      0.11(1)e+00
(PPExtractor) c cbar (MEccbar2Y12ssbar c,cbar->s,sbar) 
                                             104          104      0.12(1)e+00
(PPExtractor) c cbar (MEccbar2Y12ccbar c,cbar->c,cbar) 
                                              99           99      0.11(1)e+00
(PPExtractor) c cbar (MEccbar2Y12ddbar c,cbar->d,dbar) 
                                             111          111      0.13(1)e+00
(PPExtractor) c cbar (MEccbar2Y12uubar c,cbar->u,ubar) 
                                             100          100      0.12(1)e+00
(PPExtractor) c sbar (MEcsbar2Y1W+ c,sbar->Y1,W+) 
                                               0            0                0
(PPExtractor) c g (MEcg2Y1c c,g->Y1,c) 
                                              71           71       80(10)e-03
(PPExtractor) b bbar (MEbbbar2Y1g b,bbar->Y1,g) 
                                              12           12        14(4)e-03
(PPExtractor) b bbar (MEbbbar2Y1gamma b,bbar->Y1,gamma) 
                                               0            0                0
(PPExtractor) b bbar (MEbbbar2Y1Z0 b,bbar->Y1,Z0) 
                                               0            0                0
(PPExtractor) b bbar (MEbbbar2Y1H b,bbar->Y1,H) 
                                               0            0                0
(PPExtractor) b bbar (MEbbbar2Y1Y1 b,bbar->Y1,Y1) 
                                               0            0                0
(PPExtractor) b bbar (MEbbbar2Y12XmXm b,bbar->Xm,Xm) 
                                               0            0                0
(PPExtractor) b bbar (MEbbbar2Y12ttbar b,bbar->t,tbar) 
                                               0            0                0
(PPExtractor) b bbar (MEbbbar2Y12bbbar b,bbar->b,bbar) 
                                              43           43        50(8)e-03
(PPExtractor) b bbar (MEbbbar2Y12ssbar b,bbar->s,sbar) 
                                              35           35        41(7)e-03
(PPExtractor) b bbar (MEbbbar2Y12ccbar b,bbar->c,cbar) 
                                              38           38        44(7)e-03
(PPExtractor) b bbar (MEbbbar2Y12ddbar b,bbar->d,dbar) 
                                              39           39        45(7)e-03
(PPExtractor) b bbar (MEbbbar2Y12uubar b,bbar->u,ubar) 
                                              44           44        51(8)e-03
(PPExtractor) b g (MEbg2Y1b b,g->Y1,b) 
                                              52           52        60(8)e-03
(PPExtractor) g bbar (MEbbarg2Y1bbar bbar,g->Y1,bbar) 
                                              41           41        47(7)e-03
(PPExtractor) g cbar (MEcbarg2Y1cbar cbar,g->Y1,cbar) 
                                              65           65        75(9)e-03
(PPExtractor) g sbar (MEsbarg2Y1sbar sbar,g->Y1,sbar) 
                                             112          112      0.13(1)e+00
(PPExtractor) g ubar (MEubarg2Y1ubar ubar,g->Y1,ubar) 
                                             187          187      0.22(2)e+00
(PPExtractor) g dbar (MEdbarg2Y1dbar dbar,g->Y1,dbar) 
                                             182          182      0.21(2)e+00
(PPExtractor) g d (MEdg2Y1d d,g->Y1,d) 
                                             476          476      0.55(3)e+00
(PPExtractor) g u (MEug2Y1u u,g->Y1,u) 
                                             879          879      1.02(3)e+00
(PPExtractor) g s (MEsg2Y1s s,g->Y1,s) 
                                              84           84        97(1)e-03
(PPExtractor) g c (MEcg2Y1c c,g->Y1,c) 
                                              84           84        97(1)e-03
(PPExtractor) g b (MEbg2Y1b b,g->Y1,b) 
                                              47           47        54(8)e-03
==============================================================================
